EXTF;700;21;Buchungsstapel;9;2,01801E+16;;RK;;;29098;55003;20180101;4;20180101;20180531;Buchungsstapel;WD;1;0;0;EUR;;;;;3;;;;;;;;;;;;;;;;;;;;;;;;;;;;;;;;;;;;;;;;;;;;;;;;;;;;;;;;;;;;;;;;;;;;;;;;;;;;;;;;;;;;;;;;;;;;;
Umsatz (ohne Soll/Haben-Kz);Soll/Haben-Kennzeichen;WKZ Umsatz;Kurs;Basis-Umsatz;WKZ Basis-Umsatz;Konto;Gegenkonto (ohne BU-Schlüssel);BU-Schlüssel;Belegdatum;Belegfeld 1;Belegfeld 2;Skonto;Buchungstext;Postensperre;Diverse Adressnummer;Geschäftspartnerbank;Sachverhalt;Zinssperre;Beleglink;Beleginfo - Art 1;Beleginfo - Inhalt 1;Beleginfo - Art 2;Beleginfo - Inhalt 2;Beleginfo - Art 3;Beleginfo - Inhalt 3;Beleginfo - Art 4;Beleginfo - Inhalt 4;Beleginfo - Art 5;Beleginfo - Inhalt 5;Beleginfo - Art 6;Beleginfo - Inhalt 6;Beleginfo - Art 7;Beleginfo - Inhalt 7;Beleginfo - Art 8;Beleginfo - Inhalt 8;KOST1 - Kostenstelle;KOST2 - Kostenstelle;Kost-Menge;EU-Land u. UStID;EU-Steuersatz;Abw. Versteuerungsart;Sachverhalt L+L;Funktionsergänzung L+L;BU 49 Hauptfunktionstyp;BU 49 Hauptfunktionsnummer;BU 49 Funktionsergänzung;Zusatzinformation - Art 1;Zusatzinformation- Inhalt 1;Zusatzinformation - Art 2;Zusatzinformation- Inhalt 2;Zusatzinformation - Art 3;Zusatzinformation- Inhalt 3;Zusatzinformation - Art 4;Zusatzinformation- Inhalt 4;Zusatzinformation - Art 5;Zusatzinformation- Inhalt 5;Zusatzinformation - Art 6;Zusatzinformation- Inhalt 6;Zusatzinformation - Art 7;Zusatzinformation- Inhalt 7;Zusatzinformation - Art 8;Zusatzinformation- Inhalt 8;Zusatzinformation - Art 9;Zusatzinformation- Inhalt 9;Zusatzinformation - Art 10;Zusatzinformation- Inhalt 10;Zusatzinformation - Art 11;Zusatzinformation- Inhalt 11;Zusatzinformation - Art 12;Zusatzinformation- Inhalt 12;Zusatzinformation - Art 13;Zusatzinformation- Inhalt 13;Zusatzinformation - Art 14;Zusatzinformation- Inhalt 14;Zusatzinformation - Art 15;Zusatzinformation- Inhalt 15;Zusatzinformation - Art 16;Zusatzinformation- Inhalt 16;Zusatzinformation - Art 17;Zusatzinformation- Inhalt 17;Zusatzinformation - Art 18;Zusatzinformation- Inhalt 18;Zusatzinformation - Art 19;Zusatzinformation- Inhalt 19;Zusatzinformation - Art 20;Zusatzinformation- Inhalt 20;Stück;Gewicht;Zahlweise;Forderungsart;Veranlagungsjahr;Zugeordnete Fälligkeit;Skontotyp;Auftragsnummer;Buchungstyp;USt-Schlüssel (Anzahlungen);EU-Land (Anzahlungen);Sachverhalt L+L (Anzahlungen);EU-Steuersatz (Anzahlungen);Erlöskonto (Anzahlungen);Herkunft-Kz;Buchungs GUID;KOST-Datum;SEPA-Mandatsreferenz;Skontosperre;Gesellschaftername;Beteiligtennummer;Identifikationsnummer;Zeichnernummer;Postensperre bis;Bezeichnung SoBil-Sachverhalt;Kennzeichen SoBil-Buchung;Festschreibung;Leistungsdatum;Datum Zuord. Steuerperiode;Fälligkeit;Generalumkehr (GU);Steuersatz;Land
100,18;S;;;;;48400;8401;;3101;;;;Test Anzahlung;;;1;;;;;;;;;;;;;;;;;;;;50;;;;;;;;;;;;;;;;;;;;;;;;;;;;;;;;;;;;;;;;;;;;;;;;;;;;;;;2012;;1;Projekt 4711;AG;3;;;;8070;WK;;;;;;;;;;;;0;;;;;;
10;S;;;;;48220;8400;;3103;;;;" Normalabschr. immater. VermG"" """;;;;;;;;;;;;;;;;;;;;;;;90;;;;;;;;;;;;;;;;;;;;;;;;;;;;;;;;;;;;;;;;;;;;;;;;;;;;;;;;;;;;;;;;;WK;;;;;;;;;;;;0;;;;;;
64083;S;;;;;4400;85;;3101;;;;Normalabschreibung Gebäude;;;;;;;;;;;;;;;;;;;;;;;50;;;;;;;;;;;;;;;;;;;;;;;;;;;;;;;;;;;;;;;;;;;;;;;;;;;;;;;;;;;;;;;;;WK;;;;;;;;;;;;0;;;;;;
3584,56;S;;;;;4831;100;;310118;;;;Normalabschreibung Gebäude;;;;;;;;;;;;;;;;;;;;;;;50;;;;;;;;;;;;;;;;;;;;;;;;;;;;;;;;;;;;;;;;;;;;;;;;;;;;;;;;;;;;;;;;;WK;;;;;;;;;;;;0;;;;;;
3745,56;S;;;;;4830;210;;3101;;;;Normalabschreibung Sachanlagen;;;;;;;;;;;;;;;;;;;;;;;50;;;;;;;;;;;;;;;;;;;;;;;;;;;;;;;;;;;;;;;;;;;;;;;;;;;;;;;;;;;;;;;;;WK;;;;;;;;;;;;0;;;;;;
531,16;S;;;;;4832;320;;3101;;;;Normalabschreibung Kfz;;;;;;;;;;;;;;;;;;;;;;;20;;;;;;;;;;;;;;;;;;;;;;;;;;;;;;;;;;;;;;;;;;;;;;;;;;;;;;;;;;;;;;;;;WK;;;;;;;;;;;;0;;;;;;
4979,65;H;;;;;8400;30200;;902;201802010;;;;;;;;;;;;;;;;;;;;;;;;;;202;;;;;;;;;;;;;;;;;;;;;;;;;;;;;;;;;;;;;;;;;;;;;;;;;;;;;;;;;;;;;;;;;WK;;;;;;;;;;;;0;;;;;;
11687,62;H;;;;;8120;40000;;902;201802011;;;;;;;;;;;;;;;;;;;;;;;;;;299;;;;;;;;;;;;;;;;;;;;;;;;;;;;;;;;;;;;;;;;;;;;;;;;;;;;;;;;;;;;;;;;;WK;;;;;;;;;;;;0;;;;;;
13968,83;H;;;;;8125;40100;;1602;201802023;;;;;;;;;;;;;;;;;;;;;;;;;;299;889;5;DE133546770;;;;;;;;;;;;;;;;;;;;;;;;;;;;;;;;;;;;;;;;;;;;;;;;;;;;;;;;;;;;;;WK;;;;;;;;;;;;0;;;;;;
11807,63;H;;;;;8125;40100;;1702;201802024;;;;;;;;;;;;;;;;;;;;;;;;;;299;;;DE133546770;;;;;;;;;;;;;;;;;;;;;;;;;;;;;;;;;;;;;;;;;;;;;;;;;;;;;;;;;;;;;;WK;;;;;;;;;;;;0;;;;;;
4120,51;H;;;;;8405;30100;;1702;201802025;;;;;;;;;;;;;;;;;;;;;;;;;;201;;;;;;;;;;;;;;;;;;;;;;;;;;;;;;;;;;;;;;;;;;;;;;;;;;;;;;;;;;;;;;;;;WK;;;;;;;;;;;;0;;;;;;
16585,28;H;;;;;8405;10200;;1702;201802026;;;;;;;;;;;;;;;;;;;;;;;;;;202;;;;;;;;;;;;;;;;;;;;;;;;;;;;;;;;;;;;;;;;;;;;;;;;;;;;;;;;;;;;;;;;;WK;;;;;;;;;;;;0;;;;;;
15301,67;H;;;;;8400;10300;;2002;201802027;;;;;;;;;;;;;;;;;;;;;;;;;;201;;;;;;;;;;;;;;;;;;;;;;;;;;;;;;;;;;;;;;;;;;;;;;;;;;;;;;;;;;;;;;;;;WK;;;;;;;;;;;;0;;;;;;
7404,94;H;;;;;8400;60391;;2102;201802028;;;;;;;;;;;;;;;;;;;;;;;;;;199;;;;;;;;;;;;;;;;;;;;;;;;;;;;;;;;;;;;;;;;;;;;;;;;;;;;;;;;;;;;;;;;;WK;;;;;;;;;;;;0;;;;;;
66976,12;H;;;;;8407;10400;;2202;201802029;;;;;;;;;;;;;;;;;;;;;;;;;;201;;;;;;;;;;;;;;;;;;;;;;;;;;;;;;;;;;;;;;;;;;;;;;;;;;;;;;;;;;;;;;;;;WK;;;;;;;;;;;;0;;;;;;
118,55;H;;;;;1000;1369;;202;4;;;Test-Shop;;;;;;;;;;;;;;;;;;;;;;;;;;;;;;;;;;Beleg fehlt;Post;;;;;;;;;;;;;;;;;;;;;;;;;;;;;;;;;;;;;;;;;;;;;;;;;;;;;WK;;;;;;;;;;;;0;;;;;;
26,87;H;;;;;1000;4930;9;102;;;;Schreibwaren;;;;;;;;;;;;;;;;;;;;;;;90;;;;;;;;;;;;;;;;;;;;;;;;;;;;;;;;;;;;;;;;;;;;;;;;;;;;;;;;;;;;;;;;;WK;;;;;;;;;;;;0;;;;;;
460;S;;;;;1000;1360;;702;;;;Kasseneinlage;;;;;;;;;;;;;;;;;;;;;;;;;;;;;;;;;;;;;;;;;;;;;;;;;;;;;;;;;;;;;;;;;;;;;;;;;;;;;;;;;;;;;;;;WK;;;;;;;;;;;;0;;;;;;
124;H;CHF;1,240402;100;EUR;8120;20050;;2702;;;;Umsatz Schweiz;;;;;;;;;;;;;;;;;;;;;;;;;;;;;;;;;;;;;;;;;;;;;;;;;;;;;;;;;;;;;;;;;;;;;;;;;;;;;;;;;;;;;;;;WK;;;;;;;;;;;;0;;;;;;
70,96;H;;;;;1100;4530;9;2702;;;;Diesel;;;;;;;;;;;;;;;;;;;;;;;20;;;;;;;;;;;;;;;;;;;;;;;;;;;;;;;;;;;;;;;;;;;;;;;;;;;;;;;;;;;;;;;;;WK;;;;;;;;;;;;0;;;;;;
17107;S;;;;;31100;8125;;2702;201202007;;;Ausland EU;;;;;;;;;;;;;;;;;;;;;;;520;45;30;ATU52409200;;;;;;;;;;;;;;;;;;;;;;;;;;;;;;;;;;;;;;;;;;;;;;;;;;;;;;;;;0;;;;0;WK;;;;;;;;;;;;0;;;;;;
5856;H;;;;;1100;980;;2802;;;;Gebäudeversicherung 03/12-02/13;;;;;;;;;;;;;;;;;;;;;;;;;;;;;;;;;;;;;;;;;;;;;;;;;;;;;;;;;;;;;;;;;;;;;;;;;;;;;;;;;;;;;;;;WK;;;;;;;;;;;;0;;;;;;
70,27;H;;;;;1100;4530;9;2802;;;;Benzin;;;;;;;;;;;;;;;;;;;;;;;20;;;;;;;;;;;;;;;;;;;;;;;;;;;;;;;;;;;;;;;;;;;;;;;;;;;;;;;;;;;;;;;;;WK;;;;;;;;;;;;0;;;;;;
1763,58;H;;;;;1100;4580;9;2802;;;;Leasing Van;;;;;;;;;;;;;;;;;;;;;;;20;;;;;;;;;;;;;;;;;;;;;;;;;;;;;;;;;;;;;;;;;;;;;;;;;;;;;;;;;;;;;;;;;WK;;;;;;;;;;;;0;;;;;;
1190;H;;;;;8050;10100;3;1403;AR1234;;;Aufteilung AR ohne Automatikkonto;;;;;;;;;;;;;;;;;;;;;;;;;;;;;;;;;;;;;;;;;;;;;;;;;;;;;;;;;;;;;;;;;;;;;;;;;;;;;;;;;;;;;;;;WK;;;;;;;;;;;;0;;;;;;
700;S;;;;;8050;8060;;1403;AR1234;;;Aufteilung auf Erlöskonto;;;;;;;;;;;;;;;;;;;;;;;;;;;;;;;;;;;;;;;;;;;;;;;;;;;;;;;;;;;;;;;;;;;;;;;;;;;;;;;;;;;;;;;;WK;;;;;;;;;;;;0;;;;;;
300;S;;;;;8050;8070;;1403;AR1234;;;Aufteilung auf Erlöskonto;;;;;;;;;;;;;;;;;;;;;;;;;;;;;;;;;;;;;;;;;;;;;;;;;;;;;;;;;;;;;;;;;;;;;;;;;;;;;;;;;;;;;;;;WK;;;;;;;;;;;;0;;;;;;
1190;H;;;;;8400;10100;;1403;AR2345;;;Aufteilung AR mit Automatikkonto;;;;;;;;;;;;;;;;;;;;;;;;;;;;;;;;;;;;;;;;;;;;;;;;;;;;;;;;;;;;;;;;;;;;;;;;;;;;;;;;;;;;;;;;WK;;;;;;;;;;;;0;;;;;;
600;S;;;;;8400;8401;40;1403;AR2345;;;Auftreilung auf Erlöskonto;;;;;;;;;;;;;;;;;;;;;;;;;;;;;;;;;;;;;;;;;;;;;;;;;;;;;;;;;;;;;;;;;;;;;;;;;;;;;;;;;;;;;;;;WK;;;;;;;;;;;;0;;;;;;
400;S;;;;;8400;8405;40;1403;AR2345;;;Auftreilung auf Erlöskonto;;;;;;;;;;;;;;;;;;;;;;;;;;;;;;;;;;;;;;;;;;;;;;;;;;;;;;;;;;;;;;;;;;;;;;;;;;;;;;;;;;;;;;;;WK;;;;;;;;;;;;0;;;;;;
2500;S;;;;;10100;8400;;103;AR-78/13;160318;;Holzlieferung;;;;;;;;;;;;;;;;;;;;;;;;;;;;;;;;;;;;;;;;;;;;;;;;;;;;;;;;;;;;;;;;;;;;;;;;;;;;;;;;;;;;;;;;WK;;;;;;;;;;;;0;;;;;;
2500;S;;;;;1200;10100;;103;AR-78/13;;;Bezahlung;;;;;;;;;;;;;;;;;;;;;;;;;;;;;;;;;;;;;;;;;;;;;;;;;;;;;;;;;;;;;;;;;;;;;;;;;;;;;;;;;;;;;;;;WK;;;;;;;;;;;;0;;;;;;
119;S;;;;;10100;8400;;103;AR-456/13;;;Rechnung mit Skontogewährung;;;;;;;;;;;;;;;;;;;;;;;;;;;;;;;;;;;;;;;;;;;;;;;;;;;;;;;;;;;;;;;;;;;;;;;;;;;;;;;;;;;;;;;;WK;;;;;;;;;;;;0;;;;;;
116,62;S;;;;;1200;10100;;103;AR-456/13;;2,38;Zahlung mit 2% Skonto;;;;;;;;;;;;;;;;;;;;;;;;;;;;;;;;;;;;;;;;;;;;;;;;;;;;;;;;;;;;;;;;;;;;;;;;;;;;;;;;;;;;;;;;WK;;;;;;;;;;;;0;;;;;;
35;S;;;;;10001;8400;;103;AR-2013;;;falscher Debitor;;;;;;;;;;;;;;;;;;;;;;;;;;;;;;;;;;;;;;;;;;;;;;;;;;;;;;;;;;;;;;;;;;;;;;;;;;;;;;;;;;;;;;;;WK;;;;;;;;;;;;0;;;;;;
35;H;;;;;10001;8400;20;103;AR-2013;;;Berichtigung;;;;;;;;;;;;;;;;;;;;;;;;;;;;;;;;;;;;;;;;;;;;;;;;;;;;;;;;;;;;;;;;;;;;;;;;;;;;;;;;;;;;;;;;WK;;;;;;;;;;;;0;;;;;;
35;S;;;;;10100;8400;;103;AR-2013;;;richtiger Debitor;;;;;;;;;;;;;;;;;;;;;;;;;;;;;;;;;;;;;;;;;;;;;;;;;;;;;;;;;;;;;;;;;;;;;;;;;;;;;;;;;;;;;;;;WK;;;;;;;;;;;;0;;;;;;
488;H;;;;;980;4360;;101;;;;Gebäudeversicherung;;;;;;;;;;;;;;;;;;;;;;;10;;;;;;;;;;;;;;;;;;;;;;;;;;;;;;;;;;;;;;;;;;;;;;;;;;;;;;;;;;;;;;;;;WK;;;;;;;;;;;;0;;;;;;
102,8;H;GBP;0,83;123,86;EUR;1225;71000;;603;659832;;;Duncen Test Ltd.;;;;;;;;;;;;;;;;;;;;;;;;;;;;;;;;;;;;;;;;;;;;;;;;;;;;;;;;;;;;;;;;;;;;;;;;;;;;;;;;;;;;;;;;RE;;;;0;;;;;;;;0;;;;0;0;
1,51;H;;;;;2661;71000;;603;659832;;;Währungsumrechnungsdifferenz;;;;;;;;;;;;;;;;;;;;;;;99;;;;;;;;;;;;;;;;;;;;;;;;;;;;;;;;;;;;;;;;;;;;;;;;;;;;;;;;;;;;;;;;;RE;;;;0;;;;;;;;0;;;;0;0;
343,65;H;GBP;0,83;414,04;EUR;1225;71000;;603;659833;;;Duncen Test Ltd.;;;;;;;;;;;;;;;;;;;;;;;;;;;;;;;;;;;;;;;;;;;;;;;;;;;;;;;;;;;;;;;;;;;;;;;;;;;;;;;;;;;;;;;;RE;;;;0;;;;;;;;0;;;;0;0;
2,51;H;;;;;2661;71000;;603;659833;;;Währungsumrechnungsdifferenz;;;;;;;;;;;;;;;;;;;;;;;99;;;;;;;;;;;;;;;;;;;;;;;;;;;;;;;;;;;;;;;;;;;;;;;;;;;;;;;;;;;;;;;;;RE;;;;0;;;;;;;;0;;;;0;0;
2685,69;H;CHF;1,076;2495,99;EUR;8120;20200;;1303;20JJ03069;;;Schweizertest;;;;;;;;;;;;;;;;;;;;;;;299;;;;;;;;;;;;;;;;;;;;;;;;;;;;;;;;;;;;;;;;;;;;;;;;;;;;;;;;;;;;;;;;;RE;;;;0;;;;;;;;0;;;;0;0;
2847,33;H;CHF;1,0723;2655,35;EUR;8120;20203;;1403;20JJ03070;;;Exempel Uhrmacher;;;;;;;;;;;;;;;;;;;;;;;299;;;;;;;;;;;;;;;;;;;;;;;;;;;;;;;;;;;;;;;;;;;;;;;;;;;;;;;;;;;;;;;;;RE;;;;0;;;;;;;;0;;;;0;0;
1612,12;H;CHF;1,0699;1506,8;EUR;8120;20202;;1603;20JJ03071;;;Rübli-Test;;;;;;;;;;;;;;;;;;;;;;;299;;;;;;;;;;;;;;;;;;;;;;;;;;;;;;;;;;;;;;;;;;;;;;;;;;;;;;;;;;;;;;;;;RE;;;;0;;;;;;;;0;;;;0;0;
119;H;;;;;10001;8400;;3005;2345;;;Testleistungsdatum Ausgangsrechn. buchen nach Rechnungsdatum;;;;;;;;;;;;;;;;;;;;;;;30;;;;;;;;;;;;;;;;;;;;;;;;;;;;;;;;;;;;;;;;;;;;;;;;;;;;;;;;;;;;0;;;;0;;;;;0;;;;;;;;0;10052018;;;;;
357;H;;;;;70000;3400;;2505;ER234;;;Testleistungsdatum Eingangsrechn. buchen nach Rechnungsdatum;;;;;;;;;;;;;;;;;;;;;;;30;;;;;;;;;;;;;;;;;;;;;;;;;;;;;;;;;;;;;;;;;;;;;;;;;;;;;;;;;;;;0;;;;0;;;;;0;;;;;;;;0;12052018;25052018;;;;
55,55;H;;;;;10500;8050;3;203;ar1111;;;Generalumkehr;;;;;;;;;;;;;;;;;;;;;;;;;;;;;;;;;;;;;;;;;;;;;;;;;;;;;;;;;;;;;;;;;;;;;;;;;;;;;;;;;;;0;;;;0;RE;;;;0;;;;;;;;0;;;;1;0;
100;H;;;;;70010;4900;501;3101;363;;;501;;;;;;;;;;;;;;;;;;;;;;;;;;;;;1;190;;;;;;;;;;;;;;;;;;;;;;;;;;;;;;;;;;;;;;;;;;;;;;;;;;;;;0;;;;0;RE;;;;0;;;;;;;;0;;;;0;0;
100;S;;;;;70010;4900;501;3101;363;;;501 GU;;;;;;;;;;;;;;;;;;;;;;;;;;;;;1;190;;;;;;;;;;;;;;;;;;;;;;;;;;;;;;;;;;;;;;;;;;;;;;;;;;;;;0;;;;0;RE;;;;0;;;;;;;;0;;;;1;0;
100;H;;;;;70020;4900;502;3101;364;;;502;;;;;;;;;;;;;;;;;;;;;;;;;;;;;1;;;;;;;;;;;;;;;;;;;;;;;;;;;;;;;;;;;;;;;;;;;;;;;;;;;;;;0;;;;0;RE;;;;0;;;;;;;;0;;;;0;0;
100;S;;;;;70020;4900;502;3101;364;;;502 GU;;;;;;;;;;;;;;;;;;;;;;;;;;;;;1;;;;;;;;;;;;;;;;;;;;;;;;;;;;;;;;;;;;;;;;;;;;;;;;;;;;;;0;;;;0;RE;;;;0;;;;;;;;0;;;;1;0;
100;H;;;;;70030;4900;6501;3101;365;;;6501;;;;;;;;;;;;;;;;;;;;;;;;;;;;;1;190;;;;;;;;;;;;;;;;;;;;;;;;;;;;;;;;;;;;;;;;;;;;;;;;;;;;;0;;;;0;RE;;;;0;;;;;;;;0;;;;0;0;
100;S;;;;;70030;4900;6501;3101;365;;;6501 GU;;;;;;;;;;;;;;;;;;;;;;;;;;;;;1;190;;;;;;;;;;;;;;;;;;;;;;;;;;;;;;;;;;;;;;;;;;;;;;;;;;;;;0;;;;0;RE;;;;0;;;;;;;;0;;;;1;0;
100;H;;;;;70040;4900;6502;3101;366;;;6502;;;;;;;;;;;;;;;;;;;;;;;;;;;;;1;;;;;;;;;;;;;;;;;;;;;;;;;;;;;;;;;;;;;;;;;;;;;;;;;;;;;;0;;;;0;RE;;;;0;;;;;;;;0;;;;0;0;
100;S;;;;;70040;4900;6502;3101;366;;;6502 GU;;;;;;;;;;;;;;;;;;;;;;;;;;;;;1;;;;;;;;;;;;;;;;;;;;;;;;;;;;;;;;;;;;;;;;;;;;;;;;;;;;;;0;;;;0;RE;;;;0;;;;;;;;0;;;;1;0;
